478
450
401
478
428
437
477
419
436
481
433
477
463
480
433
494
432
463
457
404
497
418
497
495
474
400
453
442
437
405
485
499
451
428
466
410
446
445
489
468
412
492
422
415
453
476
428
432
406
456
485
496
426
410
443
499
476
477
455
500
487
498
404
